R 数据科学与编程 - 大数据
…
makeCluster()此函数指定要使用的处理器数量

Show the code
# 使用 parLapply （多进程并行）
# 创建集群
cl <- makeCluster(detectCores() - 1) # 创建一个集群，通常留一个核心给操作系统

# 将所需的库和数据导入集群
clusterExport(cl, varlist = c("example_function", "input_data"))

# 执行并行计算
result <- parSapply(cl, input_data, example_function) %>% as_tibble()
print(result)
#> # A tibble: 100,000 × 1
#>    value
#>    <dbl>
#>  1     1
#>  2     4
#>  3     9
#>  4    16
#>  5    25
#>  6    36
#>  7    49
#>  8    64
#>  9    81
#> 10   100
#> # ℹ 99,990 more rows

# 关闭集群
stopCluster(cl)

Show the code
# 使用 mclapply （多进程并行）多线程（Multithreading）

# 使用 mclapply 执行并行计算
result <- mclapply(input_data, example_function, mc.cores = 4) # mc.cores 指定使用的核心数
#> Error in mclapply(input_data, example_function, mc.cores = 4): 'mc.cores' > 1 is not supported on Windows
print(result)
#> # A tibble: 100,000 × 1
#>    value
#>    <dbl>
#>  1     1
#>  2     4
#>  3     9
#>  4    16
#>  5    25
#>  6    36
#>  7    49
#>  8    64
#>  9    81
#> 10   100
#> # ℹ 99,990 more rows
…
